{
	"singlerecord": {
		"UC1": {
			"descWt": 0.4,
			"lobWt": 0.3,
			"stdValWt": 0.3,
			"avgThreshold": 50
		},
		"PP1": {
			"descWt": 0.4,
			"lobWt": 0.3,
			"stdValWt": 0.3,
			"avgThreshold": 50
		},
		"PN1": {
			"descWt": 0.4,
			"lobWt": 0.3,
			"stdValWt": 0.3,
			"avgThreshold": 50
		},
		"FN1": {
			"descWt": 0.4,
			"lobWt": 0.3,
			"stdValWt": 0.3,
			"avgThreshold": 50
		}
	},
	"multirecord": {
		"NI1": {
			"descWt": 0.4,
			"lobWt": 0.3,
			"stdValWt": 0.3,
			"avgThreshold": 50
		},
		"NS1": {
			"descWt": 0.4,
			"lobWt": 0.3,
			"stdValWt": 0.3,
			"avgThreshold": 50
		},
		"SC1": {
			"descWt": 0.4,
			"lobWt": 0.3,
			"stdValWt": 0.3,
			"avgThreshold": 50
		},
		"SE1": {
			"descWt": 0.4,
			"lobWt": 0.3,
			"stdValWt": 0.3,
			"avgThreshold": 50
		},
		"CA1": {
			"descWt": 0.0,
			"lobWt": 0.0,
			"stdValWt": 0.3,
			"avgThreshold": 50
		},
		"CL1": {
			"descWt": 0.0,
			"lobWt": 0.0,
			"stdValWt": 0.3,
			"avgThreshold": 50
		},
		"PT1": {
			"descWt": 0.0,
			"lobWt": 0.0,
			"stdValWt": 0.3,
			"avgThreshold": 50
		},
		"PR1": {
			"descWt": 0.4,
			"lobWt": 0.3,
			"stdValWt": 0.3,
			"avgThreshold": 50
		},
		"PL1": {
			"descWt": 0.4,
			"lobWt": 0.3,
			"stdValWt": 0.3,
			"avgThreshold": 50
		},
		"RD1": {
			"descWt": 0.4,
			"lobWt": 0.3,
			"stdValWt": 0.3,
			"avgThreshold": 50
		},
		"LMT": {
			"descWt": 0.7,
			"lobWt": 0.15,
			"stdValWt": 0.15,
			"avgThreshold": 50
		},
		"ULM": {
			"descWt": 0.5,
			"lobWt": 0.25,
			"stdValWt": 0.25,
			"avgThreshold": 50
		},
		"TP1": {
			"descWt": 0.4,
			"lobWt": 0.3,
			"stdValWt": 0.3,
			"avgThreshold": 50
		},
		"ME1": {
			"descWt": 0.4,
			"lobWt": 0.3,
			"stdValWt": 0.3,
			"avgThreshold": 50
		},
		"DE1": {
			"descWt": 0.4,
			"lobWt": 0.3,
			"stdValWt": 0.3,
			"avgThreshold": 50
		},
		"SIR": {
			"descWt": 0.4,
			"lobWt": 0.3,
			"stdValWt": 0.3,
			"avgThreshold": 50
		},
		"LS1": {
			"descWt": 0.4,
			"lobWt": 0.3,
			"stdValWt": 0.3,
			"avgThreshold": 50
		},
		"AS1": {
			"descWt": 0.4,
			"lobWt": 0.3,
			"stdValWt": 0.3,
			"avgThreshold": 50
		},
		"AD1": {
			"descWt": 0.4,
			"lobWt": 0.3,
			"stdValWt": 0.3,
			"avgThreshold": 70
		},
		"AU1": {
			"descWt": 0.4,
			"lobWt": 0.3,
			"stdValWt": 0.3,
			"avgThreshold": 50
		},
		"LD1": {
			"descWt": 0.4,
			"lobWt": 0.3,
			"stdValWt": 0.3,
			"avgThreshold": 50
		},
		"CT1": {
			"descWt": 0.4,
			"lobWt": 0.3,
			"stdValWt": 0.3,
			"avgThreshold": 50
		},
		"AI1": {
			"descWt": 0.4,
			"lobWt": 0.3,
			"stdValWt": 0.3,
			"avgThreshold": 50
		},
		"DOC": {
			"descWt": 0.4,
			"lobWt": 0.3,
			"stdValWt": 0.3,
			"avgThreshold": 50
		},
		"DEX": {
			"descWt": 0.4,
			"lobWt": 0.3,
			"stdValWt": 0.3,
			"avgThreshold": 50
		},
		"AV1": {
			"descWt": 0.4,
			"lobWt": 0.3,
			"stdValWt": 0.3,
			"avgThreshold": 50
		},
		"CO1": {
			"descWt": 0.4,
			"lobWt": 0.3,
			"stdValWt": 0.3,
			"avgThreshold": 50
		},
		"EQ1": {
			"descWt": 0.4,
			"lobWt": 0.3,
			"stdValWt": 0.3,
			"avgThreshold": 50
		},
		"CV1": {
			"descWt": 0.4,
			"lobWt": 0.3,
			"stdValWt": 0.3,
			"avgThreshold": 50
		},
		"IG1": {
			"descWt": 0.7,
			"lobWt": 0.15,
			"stdValWt": 0.15,
			"avgThreshold": 50
		}
	}
}